<svg width="23" height="22" viewBox="0 0 23 22" fill="none" xmlns="http://www.w3.org/2000/svg">
<path fill-rule="evenodd" clip-rule="evenodd" d="M4.74766 0H22.0162V17.2561C22.0162 19.8651 19.8798 22 17.2685 22H8.30373C7.8666 22 7.43778 21.9658 7.01876 21.9L18.232 7.69433L14.3271 3.76672H10.721L14.4754 7.60179L2.7237 19.834C2.51089 19.6405 2.30883 19.4361 2.11734 19.222L13.6232 7.61177L9.34457 3.2307H18.7699V12.6819L16.6788 10.5545L14.9605 12.7642L20.4369 18.2358V1.57062H3.78813L9.89622 7.69433L0.0511272 14.6173C0.0179228 14.3168 0 14.0117 0 13.7028V4.74392C0 2.13486 2.1364 0 4.74766 0Z" fill="#A1A1A1"/>
</svg>
